\relax 
\select@language{english}
\@writefile{toc}{\select@language{english}}
\@writefile{lof}{\select@language{english}}
\@writefile{lot}{\select@language{english}}
\@writefile{toc}{\contentsline {part}{I\hspace  {1em}XJS}{4}}
\@writefile{toc}{\contentsline {chapter}{\numberline {1}Introduction}{5}}
\@writefile{lof}{\addvspace {10\p@ }}
\@writefile{lot}{\addvspace {10\p@ }}
\@writefile{toc}{\contentsline {section}{\numberline {1.1}Goal}{5}}
\@writefile{toc}{\contentsline {section}{\numberline {1.2}Artifacts}{5}}
\@writefile{toc}{\contentsline {chapter}{\numberline {2}Startup}{6}}
\@writefile{lof}{\addvspace {10\p@ }}
\@writefile{lot}{\addvspace {10\p@ }}
\@writefile{toc}{\contentsline {chapter}{\numberline {3}Bootstrap}{7}}
\@writefile{lof}{\addvspace {10\p@ }}
\@writefile{lot}{\addvspace {10\p@ }}
\@writefile{toc}{\contentsline {section}{\numberline {3.1}Scripting}{7}}
\@writefile{toc}{\contentsline {section}{\numberline {3.2}Compiling}{7}}
\@writefile{toc}{\contentsline {section}{\numberline {3.3}Dependencies}{7}}
\@writefile{toc}{\contentsline {chapter}{\numberline {4}Services}{8}}
\@writefile{lof}{\addvspace {10\p@ }}
\@writefile{lot}{\addvspace {10\p@ }}
\@writefile{toc}{\contentsline {chapter}{\numberline {5}Content Providers}{9}}
\@writefile{lof}{\addvspace {10\p@ }}
\@writefile{lot}{\addvspace {10\p@ }}
\@writefile{toc}{\contentsline {chapter}{\numberline {6}Config}{10}}
\@writefile{lof}{\addvspace {10\p@ }}
\@writefile{lot}{\addvspace {10\p@ }}
\@writefile{toc}{\contentsline {part}{II\hspace  {1em}XJS Files}{11}}
\@writefile{toc}{\contentsline {chapter}{\numberline {7}Introduction}{12}}
\@writefile{lof}{\addvspace {10\p@ }}
\@writefile{lot}{\addvspace {10\p@ }}
\@writefile{toc}{\contentsline {chapter}{\numberline {8}XJS:HTML dialect}{13}}
\@writefile{lof}{\addvspace {10\p@ }}
\@writefile{lot}{\addvspace {10\p@ }}
\@writefile{toc}{\contentsline {chapter}{\numberline {9}Partials}{14}}
\@writefile{lof}{\addvspace {10\p@ }}
\@writefile{lot}{\addvspace {10\p@ }}
\@writefile{toc}{\contentsline {chapter}{\numberline {10}XAction}{15}}
\@writefile{lof}{\addvspace {10\p@ }}
\@writefile{lot}{\addvspace {10\p@ }}
\@writefile{toc}{\contentsline {section}{\numberline {10.1}Define Actions in Code}{15}}
\@writefile{toc}{\contentsline {section}{\numberline {10.2}Reference Actions in XJS}{15}}
\@writefile{toc}{\contentsline {section}{\numberline {10.3}Upload Files}{15}}
\@writefile{toc}{\contentsline {part}{III\hspace  {1em}Data}{16}}
\@writefile{toc}{\contentsline {chapter}{\numberline {11}Introduction}{17}}
\@writefile{lof}{\addvspace {10\p@ }}
\@writefile{lot}{\addvspace {10\p@ }}
\@writefile{toc}{\contentsline {chapter}{\numberline {12}Define Meta-Types}{18}}
\@writefile{lof}{\addvspace {10\p@ }}
\@writefile{lot}{\addvspace {10\p@ }}
\@writefile{toc}{\contentsline {chapter}{\numberline {13}Query Data}{19}}
\@writefile{lof}{\addvspace {10\p@ }}
\@writefile{lot}{\addvspace {10\p@ }}
\@writefile{toc}{\contentsline {chapter}{\numberline {14}REST API}{20}}
\@writefile{lof}{\addvspace {10\p@ }}
\@writefile{lot}{\addvspace {10\p@ }}
\@writefile{toc}{\contentsline {section}{\numberline {14.1}Attach to XJS Server}{20}}
